In Class Exercise 3
…
## Rows: 984656 Columns: 7

## -- Column specification --------------------------------------------------------
## Delimiter: ","
## chr (5): PA, SZ, AG, Sex, TOD
## dbl (2): Pop, Time

## 
## i Use `spec()` to retrieve the full column specification for this data.
## i Specify the column types or set `show_col_types = FALSE` to quiet this message.

popdata

## # A tibble: 984,656 x 7
##    PA         SZ                     AG     Sex     TOD                Pop  Time
##    <chr>      <chr>                  <chr>  <chr>   <chr>            <dbl> <dbl>
##  1 Ang Mo Kio Ang Mo Kio Town Centre 0_to_4 Males   HDB 1- and 2-Ro~     0  2011
##  2 Ang Mo Kio Ang Mo Kio Town Centre 0_to_4 Males   HDB 3-Room Flats    10  2011
##  3 Ang Mo Kio Ang Mo Kio Town Centre 0_to_4 Males   HDB 4-Room Flats    30  2011
##  4 Ang Mo Kio Ang Mo Kio Town Centre 0_to_4 Males   HDB 5-Room and ~    50  2011
##  5 Ang Mo Kio Ang Mo Kio Town Centre 0_to_4 Males   HUDC Flats (exc~     0  2011
##  6 Ang Mo Kio Ang Mo Kio Town Centre 0_to_4 Males   Landed Properti~     0  2011
##  7 Ang Mo Kio Ang Mo Kio Town Centre 0_to_4 Males   Condominiums an~    40  2011
##  8 Ang Mo Kio Ang Mo Kio Town Centre 0_to_4 Males   Others               0  2011
##  9 Ang Mo Kio Ang Mo Kio Town Centre 0_to_4 Females HDB 1- and 2-Ro~     0  2011
## 10 Ang Mo Kio Ang Mo Kio Town Centre 0_to_4 Females HDB 3-Room Flats    10  2011
## # ... with 984,646 more rows
…
## `summarise()` has grouped output by 'PA', 'SZ'. You can override using the `.groups` argument.

popdata2020

## # A tibble: 332 x 7
##    PA         SZ                     YOUNG `ECONOMY ACTIVE`  AGED TOTAL DEPENDENCY
##    <chr>      <chr>                  <dbl>            <dbl> <dbl> <dbl>      <dbl>
##  1 Ang Mo Kio Ang Mo Kio Town Centre  1290             2760   760  4810      0.743
##  2 Ang Mo Kio Cheng San               5640            16460  6050 28150      0.710
##  3 Ang Mo Kio Chong Boon              5100            15000  6470 26570      0.771
##  4 Ang Mo Kio Kebun Bahru             4620            13010  5120 22750      0.749
##  5 Ang Mo Kio Sembawang Hills         1880             3630  1310  6820      0.879
##  6 Ang Mo Kio Shangri-La              3330             9050  3610 15990      0.767
##  7 Ang Mo Kio Tagore                  1940             4480  1530  7950      0.775
##  8 Ang Mo Kio Townsville              4190            11950  5100 21240      0.777
##  9 Ang Mo Kio Yio Chu Kang               0                0     0     0    NaN    
## 10 Ang Mo Kio Yio Chu Kang East       1110             2410   750  4270      0.772
## # ... with 322 more rows
…
